{
  "name": "E Clips USA",
  "version": "1.3.3",
  "meta": {
    "price": 0,
    "documentation_url": "https://lonestartemplates.com/vault-theme-manual/",
    "author_name": "Lone Star Templates",
    "author_email": "support@lonestartemplates.com",
    "author_support_url": "https://lonestartemplates.com/vault-release-notes/",
    "composed_image": "composed.png",
    "features": [
      "fully_responsive",
      "mega_navigation",
      "multi_tiered_sidebar_menu",
      "masonry_design",
      "frontpage_slideshow",
      "quick_add_to_cart",
      "switchable_product_view",
      "product_comparison_table",
      "complex_search_filtering",
      "customizable_product_selector",
      "cart_suggested_products",
      "free_customer_support",
      "free_theme_upgrades",
      "high_res_product_images",
      "product_filtering",
      "advanced_quick_view",
      "product_showcase",
      "persistent_cart",
      "one_page_check_out",
      "product_videos",
      "google_amp",
      "customized_checkout",
      "account_payment_methods",
      "enhanced_ecommerce",
      "csrf_protection"
    ]
  },
  "css_compiler": "scss",
  "autoprefixer_cascade": true,
  "autoprefixer_browsers": [
    "> 1%",
    "last 2 versions",
    "Firefox ESR"
  ],
  "settings": {
    "homepage_new_products_count": 5,
    "homepage_featured_products_count": 4,
    "homepage_top_products_count": 4,
    "homepage_show_carousel": true,
    "homepage_show_carousel_arrows": true,
    "homepage_stretch_carousel_images": true,
    "homepage_new_products_column_count": 4,
    "homepage_featured_products_column_count": 4,
    "homepage_top_products_column_count": 4,
    "homepage_blog_posts_count": 3,
    "productpage_videos_count": 8,
    "productpage_reviews_count": 9,
    "productpage_related_products_count": 10,
    "productpage_similar_by_views_count": 10,
    "categorypage_products_per_page": 12,
    "shop_by_price_visibility": true,
    "brandpage_products_per_page": 12,
    "searchpage_products_per_page": 12,
    "show_product_quick_view": true,
    "show_product_quantity_box": true,
    "show_powered_by": true,
    "show_created_by": true,
    "shop_by_brand_show_footer": true,
    "show_copyright_footer": true,
    "show_accept_amazon_pay": true,
    "show_accept_amex": true,
    "show_accept_apple_pay": true,
    "show_accept_chase_pay": true,
    "show_accept_discover": true,
    "show_accept_mastercard": true,
    "show_accept_masterpass": true,
    "show_accept_paypal": true,
    "show_accept_visa": true,
    "show_accept_visa_pay": true,
    "show_product_details_tabs": true,
    "show_product_overview_tab": true,
    "show_product_warranty_tab": true,
    "show_product_video_tab": true,
    "show_product_reviews_tab": true,
    "show_product_weight": true,
    "show_product_dimensions": false,
    "product_list_display_mode": "grid",
    "logo-position": "center",
    "logo_size": "250x100",
    "logo_fontSize": 48,
    "brand_size": "190x250",
    "gallery_size": "300x300",
    "productgallery_size": "500x659",
    "product_size": "600x600",
    "productview_thumb_size": "50x50",
    "productthumb_size": "100x100",
    "thumb_size": "100x100",
    "zoom_size": "1280x1280",
    "blog_size": "390x250",
    "blog_size_post": "790x790",
    "default_image_brand": "/assets/img/BrandDefault.gif",
    "default_image_product": "/assets/img/ProductDefault.gif",
    "default_image_gift_certificate": "/assets/img/GiftCertificate.png",
    "body-font": "Google_Poppins_400",
    "headings-font": "Google_Poppins_700",
    "fontSize-root": 14,
    "fontSize-h1": 28,
    "fontSize-h2": 24,
    "fontSize-h3": 22,
    "fontSize-h4": 20,
    "fontSize-h5": 15,
    "fontSize-h6": 13,
    "applePay-button": "black",
    "color-textBase": "#2f2f2b",
    "color-textBase--hover": "#e74c3c",
    "color-textBase--active": "#e74c3c",
    "color-textSecondary": "#a2a2a2",
    "color-textSecondary--hover": "#ff762b",
    "color-textSecondary--active": "#ff762b",
    "color-textLink": "#e74c3c",
    "color-textLink--hover": "#a2a2a2",
    "footer-linkHoverColor": "#ff762b",
    "color-textLink--active": "#a2a2a2",
    "color-textHeading": "#2f2f2b",
    "color-primary": "#e74c3c",
    "color-primaryDark": "#666666",
    "color-primaryDarker": "#333333",
    "color-primaryLight": "#ff762b",
    "color-secondary": "#e74c3c",
    "color-secondaryDark": "#e5e5e5",
    "color-secondaryDarker": "#cccccc",
    "color-error": "#e74c3c",
    "color-errorLight": "#e74c3c",
    "color-info": "#ffffff",
    "color-infoLight": "#dfdfdf",
    "color-success": "#01a74f",
    "color-successLight": "#01a74f",
    "color-warning": "#e74c3c",
    "color-warningLight": "#ff762b",
    "color-black": "#ffffff",
    "color-white": "#ffffff",
    "color-whitesBase": "#e5e5e5",
    "color-grey": "#999999",
    "color-greyDarkest": "#000000",
    "color-greyDarker": "#333333",
    "color-greyDark": "#666666",
    "color-greyMedium": "#757575",
    "color-greyLight": "#999999",
    "color-greyLighter": "#cccccc",
    "color-greyLightest": "#e5e5e5",
    "button--default-color": "#ffffff",
    "button--default-colorHover": "#ffffff",
    "button--default-colorActive": "#ffffff",
    "button--default-backgroundColor": "#e74c3c",
    "button--default-backgroundColorHover": "#ff762b",
    "button--default-backgroundColorActive": "#ff762b",
    "button--default-borderColor": "#e74c3c",
    "button--default-borderColorHover": "#ff762b",
    "button--default-borderColorActive": "#ff762b",
    "button--primary-color": "#ffffff",
    "button--primary-colorHover": "#ffffff",
    "button--primary-colorActive": "#ffffff",
    "button--primary-backgroundColor": "#e74c3c",
    "button--primary-backgroundColorHover": "#ff762b",
    "button--primary-backgroundColorActive": "#ff762b",
    "button--disabled-color": "#ffffff",
    "button--disabled-backgroundColor": "#cccccc",
    "button--disabled-borderColor": "transparent",
    "icon-color": "#545454",
    "icon-color-hover": "#e74c3c",
    "button--icon-svg-color": "#2f2f2b",
    "icon-ratingEmpty": "#cccccc",
    "icon-ratingFull": "#e74c3c",
    "carousel-bgColor": "#ffffff",
    "carousel-title-color": "#2f2f2b",
    "carousel-description-color": "#2f2f2b",
    "carousel-dot-color": "#333333",
    "carousel-dot-color-active": "#e74c3c",
    "carousel-dot-bgColor": "#ffffff",
    "carousel-arrow-color": "#999999",
    "carousel-arrow-bgColor": "#ffffff",
    "carousel-arrow-borderColor": "#ffffff",
    "card-title-color": "#2f2f2b",
    "card-title-color-hover": "#e74c3c",
    "card-figcaption-button-background": "#ffffff",
    "card-figcaption-button-color": "#333333",
    "card--alternate-backgroundColor": "#ffffff",
    "card--alternate-borderColor": "#ffffff",
    "card--alternate-color--hover": "#ffffff",
    "card--alternate-textColor": "#2f2f2b",
    "card--alternate-hover-color": "#e74c3c",
    "form-label-font-color": "#2f2f2b",
    "input-font-color": "#2f2f2b",
    "input-border-color": "#2f2f2b",
    "input-border-color-active": "#e74c3c",
    "input-bg-color": "#ffffff",
    "input-disabled-bg": "#ffffff",
    "select-bg-color": "#ffffff",
    "select-arrow-color": "#757575",
    "checkRadio-color": "#2f2f2b",
    "checkRadio-backgroundColor": "#ffffff",
    "checkRadio-borderColor": "#cccccc",
    "alert-backgroundColor": "#ffffff",
    "alert-color": "#333333",
    "alert-color-alt": "#ffffff",
    "storeName-color": "#333333",
    "body-bg": "#ffffff",
    "header-backgroundColor": "#ffffff",
    "footer-backgroundColor": "#ffffff",
    "newsletter-backgroundColor": "#ebebeb",
    "navUser-color": "#333333",
    "navUser-color-hover": "#e74c3c",
    "navUser-dropdown-backgroundColor": "#ffffff",
    "navUser-dropdown-borderColor": "#d7d7d7",
    "navUser-indicator-backgroundColor": "#333333",
    "navPages-color": "#333333",
    "navPages-color-hover": "#e74c3c",
    "navPages-subMenu-backgroundColor": "#ffffff",
    "navPages-subMenu-fontColor": "#2f2f2b",
    "navPages-subMenu-separatorColor": "#d7d7d7",
    "dropdown--quickSearch-backgroundColor": "transparent",
    "dropdown--wishList-backgroundColor": "#ffffff",
    "blockquote-cite-font-color": "#999999",
    "container-border-global-color-base": "#cdcccc",
    "container-fill-base": "#ffffff",
    "container-fill-dark": "#f4f0ed",
    "label-backgroundColor": "#cccccc",
    "label-color": "#ffffff",
    "overlay-backgroundColor": "#333333",
    "loadingOverlay-backgroundColor": "#ffffff",
    "pace-progress-backgroundColor": "#ff762b",
    "spinner-borderColor-dark": "#191919",
    "spinner-borderColor-light": "#ff762b",
    "hide_content_navigation": false,
    "optimizedCheckout-header-backgroundColor": "#ffffff",
    "optimizedCheckout-show-backgroundImage": false,
    "optimizedCheckout-backgroundImage": "",
    "optimizedCheckout-backgroundImage-size": "1000x400",
    "optimizedCheckout-show-logo": "none",
    "optimizedCheckout-logo": "",
    "optimizedCheckout-logo-size": "250x100",
    "optimizedCheckout-logo-position": "left",
    "optimizedCheckout-headingPrimary-color": "#333333",
    "optimizedCheckout-headingPrimary-font": "Google_Poppins_400",
    "optimizedCheckout-headingSecondary-color": "#333333",
    "optimizedCheckout-headingSecondary-font": "Google_Poppins_400",
    "optimizedCheckout-body-backgroundColor": "#ffffff",
    "optimizedCheckout-colorFocus": "#e74c3c",
    "optimizedCheckout-contentPrimary-color": "#2f2f2b",
    "optimizedCheckout-contentPrimary-font": "Google_Poppins_400",
    "optimizedCheckout-contentSecondary-color": "#757575",
    "optimizedCheckout-contentSecondary-font": "Google_Poppins_400",
    "optimizedCheckout-buttonPrimary-font": "Google_Poppins_700",
    "optimizedCheckout-buttonPrimary-color": "#ffffff",
    "optimizedCheckout-buttonPrimary-colorHover": "#ffffff",
    "optimizedCheckout-buttonPrimary-colorActive": "#ffffff",
    "optimizedCheckout-buttonPrimary-backgroundColor": "#e74c3c",
    "optimizedCheckout-buttonPrimary-backgroundColorHover": "#ff762b",
    "optimizedCheckout-buttonPrimary-backgroundColorActive": "#ff762b",
    "optimizedCheckout-buttonPrimary-borderColor": "#d7d7d7",
    "optimizedCheckout-buttonPrimary-borderColorHover": "transparent",
    "optimizedCheckout-buttonPrimary-borderColorActive": "transparent",
    "optimizedCheckout-buttonPrimary-borderColorDisabled": "transparent",
    "optimizedCheckout-buttonPrimary-backgroundColorDisabled": "#cccccc",
    "optimizedCheckout-buttonPrimary-colorDisabled": "#ffffff",
    "optimizedCheckout-formChecklist-backgroundColor": "#ffffff",
    "optimizedCheckout-formChecklist-color": "#2f2f2b",
    "optimizedCheckout-formChecklist-borderColor": "#cccccc",
    "optimizedCheckout-formChecklist-backgroundColorSelected": "#f5f5f5",
    "optimizedCheckout-buttonSecondary-font": "Google_Poppins_400",
    "optimizedCheckout-buttonSecondary-color": "#ffffff",
    "optimizedCheckout-buttonSecondary-colorHover": "#ffffff",
    "optimizedCheckout-buttonSecondary-colorActive": "#ffffff",
    "optimizedCheckout-buttonSecondary-backgroundColor": "#e74c3c",
    "optimizedCheckout-buttonSecondary-borderColor": "#d7d7d7",
    "optimizedCheckout-buttonSecondary-backgroundColorHover": "#ff762b",
    "optimizedCheckout-buttonSecondary-backgroundColorActive": "#ff762b",
    "optimizedCheckout-buttonSecondary-borderColorHover": "#d7d7d7",
    "optimizedCheckout-buttonSecondary-borderColorActive": "#d7d7d7",
    "optimizedCheckout-link-color": "#e74c3c",
    "optimizedCheckout-link-font": "Google_Poppins_400",
    "optimizedCheckout-discountBanner-backgroundColor": "#e5e5e5",
    "optimizedCheckout-discountBanner-textColor": "#2f2f2b",
    "optimizedCheckout-discountBanner-iconColor": "#2f2f2b",
    "optimizedCheckout-orderSummary-backgroundColor": "#ffffff",
    "optimizedCheckout-orderSummary-borderColor": "#d7d7d7",
    "optimizedCheckout-step-backgroundColor": "#e74c3c",
    "optimizedCheckout-step-textColor": "#ffffff",
    "optimizedCheckout-form-textColor": "#2f2f2b",
    "optimizedCheckout-formField-borderColor": "#d7d7d7",
    "optimizedCheckout-formField-textColor": "#2f2f2b",
    "optimizedCheckout-formField-shadowColor": "#e5e5e5",
    "optimizedCheckout-formField-placeholderColor": "#2f2f2b",
    "optimizedCheckout-formField-backgroundColor": "#ffffff",
    "optimizedCheckout-formField-errorColor": "#e74c3c",
    "optimizedCheckout-formField-inputControlColor": "#e74c3c",
    "optimizedCheckout-step-borderColor": "#d7d7d7",
    "optimizedCheckout-header-borderColor": "#d7d7d7",
    "optimizedCheckout-header-textColor": "#2f2f2b",
    "optimizedCheckout-loadingToaster-backgroundColor": "#2f2f2b",
    "optimizedCheckout-loadingToaster-textColor": "#ffffff",
    "optimizedCheckout-link-hoverColor": "#e74c3c",
    "product_sale_badges": "topleft",
    "color_badge_product_sale_badges": "#e74c3c",
    "color_text_product_sale_badges": "#ffffff",
    "color_hover_product_sale_badges": "#ff762b",
    "restrict_to_login": false,
    "swatch_option_size": "45x45",
    "show_social_icons": true,
    "navigation_design": "alternate",
    "price_ranges": true,
    "pdp-price-label": "",
    "pdp-sale-price-label": "Now:",
    "pdp-non-sale-price-label": "Was:",
    "pdp-retail-price-label": "MSRP:",
    "paymentbuttons-paypal-layout": "horizontal",
    "paymentbuttons-paypal-color": "gold",
    "paymentbuttons-paypal-shape": "pill",
    "paymentbuttons-paypal-size": "small",
    "paymentbuttons-paypal-label": "checkout",
    "paymentbuttons-paypal-tagline": true,
    "paymentbuttons-paypal-fundingicons": false,
    "show_sticky_nav": true,
    "mega_nav_name": "Shop",
    "sticky_mega_nav_name": "Menu",
    "show_logo_in_sticky_nav": false,
    "show_pages_in_sticky_nav": false,
    "show_pages_in_mobile_nav": true,
    "show_brands_in_sticky_nav": true,
    "show_brands_in_main_mega_nav": true,
    "number_of_categories_per_page": 15,
    "show_pages_in_main_mobile_nav": true,
    "mobile_icon_color": "#2f2f2b",
    "show_mobile_subcategory_grid": true,
    "supported_card_type_icons": [
      "american_express",
      "diners",
      "discover",
      "mastercard",
      "visa"
    ],
    "lazyload_mode": "lazyload+lqip",
    "show-admin-bar": true
  },
  "read_only_files": [
    "/assets/scss/components/citadel",
    "/assets/scss/components/foundation",
    "/assets/scss/components/vendor",
    "/assets/scss/settings/citadel",
    "/assets/scss/settings/foundation",
    "/assets/scss/settings/normalize",
    "/assets/scss/settings/vendor",
    "/assets/scss/vendor"
  ],
  "resources": {
    "cart": false,
    "bulk_discount_rates": false,
    "shop_by_brand": {
      "limit": 10
    }
  },
  "variations": [
    {
      "name": "Bright",
      "id": "bright",
      "meta": {
        "desktop_screenshot": "desktop_bright.jpg",
        "mobile_screenshot": "mobile_bright.jpg",
        "description": "Vault provides a quality free theme that allows BigCommerce store owners to create an inviting and interesting storefront quickly and easily. Vault's advanced Store Design capabilities gives you the power and flexibility to add image and text banners to your homepage without having to modify code. Its clean look offers better readability thanks to the clear layout, timeless font, and color highlights. With the built in color pickers, you can quickly change the look of nearly every element within the theme. Vault offers a built-in mega menu that is the perfect choice for large menus and is versatile enough to handle both small and large catalogs alike, all while keeping a sleek and modern design.",
        "demo_url": "https://vault-bright-demo.mybigcommerce.com/",
        "optimized_for": [
          "multi_purpose",
          "mobile_tablet_desktop",
          "sales_discounts",
          "large_catalog"
        ],
        "industries": [
          "fashion_jewelry"
        ]
      },
      "images": {
      },
      "settings": {
        "homepage_new_products_count": 0,
        "homepage_featured_products_count": 12,
        "homepage_top_products_count": 12,
        "homepage_show_carousel": true,
        "homepage_show_carousel_arrows": true,
        "homepage_stretch_carousel_images": true,
        "homepage_new_products_column_count": 5,
        "homepage_featured_products_column_count": 5,
        "homepage_top_products_column_count": 5,
        "homepage_blog_posts_count": 3,
        "productpage_videos_count": 8,
        "productpage_reviews_count": 9,
        "productpage_related_products_count": 4,
        "productpage_similar_by_views_count": 4,
        "categorypage_products_per_page": 20,
        "shop_by_price_visibility": true,
        "brandpage_products_per_page": 20,
        "searchpage_products_per_page": 20,
        "show_product_quick_view": false,
        "show_product_quantity_box": true,
        "show_powered_by": false,
        "show_created_by": false,
        "shop_by_brand_show_footer": true,
        "show_copyright_footer": true,
        "show_accept_amazon_pay": true,
        "show_accept_amex": true,
        "show_accept_apple_pay": true,
        "show_accept_chase_pay": true,
        "show_accept_discover": true,
        "show_accept_mastercard": true,
        "show_accept_masterpass": true,
        "show_accept_paypal": true,
        "show_accept_visa": true,
        "show_accept_visa_pay": true,
        "show_product_details_tabs": true,
        "show_product_overview_tab": true,
        "show_product_warranty_tab": true,
        "show_product_video_tab": true,
        "show_product_reviews_tab": true,
        "show_product_weight": true,
        "show_product_dimensions": true,
        "product_list_display_mode": "grid",
        "logo-position": "left",
        "logo_size": "250x100",
        "logo_fontSize": 48,
        "brand_size": "190x250",
        "gallery_size": "300x300",
        "productgallery_size": "500x659",
        "product_size": "600x600",
        "productview_thumb_size": "50x50",
        "productthumb_size": "100x100",
        "thumb_size": "100x100",
        "zoom_size": "1280x1280",
        "blog_size": "390x250",
        "blog_size_post": "790x790",
        "default_image_brand": "/assets/img/BrandDefault.gif",
        "default_image_product": "/assets/img/ProductDefault.gif",
        "default_image_gift_certificate": "/assets/img/GiftCertificate.png",
        "body-font": "Google_Poppins_400",
        "headings-font": "Google_Poppins_700",
        "fontSize-root": 14,
        "fontSize-h1": 28,
        "fontSize-h2": 24,
        "fontSize-h3": 22,
        "fontSize-h4": 20,
        "fontSize-h5": 15,
        "fontSize-h6": 13,
        "applePay-button": "black",
        "color-textBase": "#2f2f2b",
        "color-textBase--hover": "#FFE270",
        "color-textBase--active": "#e74c3c",
        "color-textSecondary": "#a2a2a2",
        "color-textSecondary--hover": "#69ABFD",
        "color-textSecondary--active": "#ff762b",
        "color-textLink": "#FFE270",
        "color-textLink--hover": "#a2a2a2",
        "footer-linkHoverColor": "#69ABFD",
        "color-textLink--active": "#a2a2a2",
        "color-textHeading": "#2f2f2b",
        "color-primary": "#FFE270",
        "color-primaryDark": "#666666",
        "color-primaryDarker": "#333333",
        "color-primaryLight": "#69ABFD",
        "color-secondary": "#e74c3c",
        "color-secondaryDark": "#e5e5e5",
        "color-secondaryDarker": "#cccccc",
        "color-error": "#e74c3c",
        "color-errorLight": "#e74c3c",
        "color-info": "#ffffff",
        "color-infoLight": "#dfdfdf",
        "color-success": "#01a74f",
        "color-successLight": "#01a74f",
        "color-warning": "#e74c3c",
        "color-warningLight": "#ff762b",
        "color-black": "#ffffff",
        "color-white": "#ffffff",
        "color-whitesBase": "#e5e5e5",
        "color-grey": "#999999",
        "color-greyDarkest": "#000000",
        "color-greyDarker": "#333333",
        "color-greyDark": "#666666",
        "color-greyMedium": "#757575",
        "color-greyLight": "#999999",
        "color-greyLighter": "#cccccc",
        "color-greyLightest": "#e5e5e5",
        "button--default-color": "#191919",
        "button--default-colorHover": "#757575",
        "button--default-colorActive": "#CDCCCC",
        "button--default-backgroundColor": "#FFD800",
        "button--default-backgroundColorHover": "#ff762b",
        "button--default-backgroundColorActive": "#ff762b",
        "button--default-borderColor": "#69ABFD",
        "button--default-borderColorHover": "#ff762b",
        "button--default-borderColorActive": "#ff762b",
        "button--primary-color": "#313131",
        "button--primary-colorHover": "#757575",
        "button--primary-colorActive": "#CDCCCC",
        "button--primary-backgroundColor": "#FFD800",
        "button--primary-backgroundColorHover": "#FFD800",
        "button--primary-backgroundColorActive": "#FFE270",
        "button--disabled-color": "#ffffff",
        "button--disabled-backgroundColor": "#cccccc",
        "button--disabled-borderColor": "transparent",
        "icon-color": "#545454",
        "icon-color-hover": "#ff762b",
        "button--icon-svg-color": "#2f2f2b",
        "icon-ratingEmpty": "#c2c2c2",
        "icon-ratingFull": "#FFD800",
        "carousel-bgColor": "#ffffff",
        "carousel-title-color": "#2f2f2b",
        "carousel-description-color": "#2f2f2b",
        "carousel-dot-color": "#1f1f1f",
        "carousel-dot-color-active": "#FFE270",
        "carousel-dot-bgColor": "#FFE270",
        "carousel-arrow-color": "#313131",
        "carousel-arrow-bgColor": "#ffffff",
        "carousel-arrow-borderColor": "#e4e3e1",
        "card-title-color": "#2f2f2b",
        "card-title-color-hover": "#FFD800",
        "card-figcaption-button-background": "#ffffff",
        "card-figcaption-button-color": "#1f1f1f",
        "card--alternate-backgroundColor": "#ffffff",
        "card--alternate-borderColor": "#ffffff",
        "card--alternate-color--hover": "#ffffff",
        "card--alternate-textColor": "#2f2f2b",
        "card--alternate-hover-color": "#FFD800",
        "form-label-font-color": "#2f2f2b",
        "input-font-color": "#2f2f2b",
        "input-border-color": "#cccccc",
        "input-border-color-active": "#FFE270",
        "input-bg-color": "#ffffff",
        "input-disabled-bg": "#ffffff",
        "select-bg-color": "#ffffff",
        "select-arrow-color": "#757575",
        "checkRadio-color": "#333333",
        "checkRadio-backgroundColor": "#ffffff",
        "checkRadio-borderColor": "#cccccc",
        "alert-backgroundColor": "#ffffff",
        "alert-color": "#333333",
        "alert-color-alt": "#ffffff",
        "storeName-color": "#333333",
        "body-bg": "#ffffff",
        "header-backgroundColor": "#ffffff",
        "footer-backgroundColor": "#1f1f1f",
        "newsletter-backgroundColor": "#ebebeb",
        "navUser-color": "#333333",
        "navUser-color-hover": "#69ABFD",
        "navUser-dropdown-backgroundColor": "#ffffff",
        "navUser-dropdown-borderColor": "#d7d7d7",
        "navUser-indicator-backgroundColor": "#333333",
        "navPages-color": "#333333",
        "navPages-color-hover": "#69ABFD",
        "navPages-subMenu-backgroundColor": "#FFFFFF",
        "navPages-subMenu-fontColor": "#2f2f2b",
        "navPages-subMenu-separatorColor": "#d7d7d7",
        "dropdown--quickSearch-backgroundColor": "transparent",
        "dropdown--wishList-backgroundColor": "#ffffff",
        "blockquote-cite-font-color": "#999999",
        "container-border-global-color-base": "#cdcccc",
        "container-fill-base": "#ffffff",
        "container-fill-dark": "#f4f0ed",
        "label-backgroundColor": "#cccccc",
        "label-color": "#ffffff",
        "overlay-backgroundColor": "#333333",
        "loadingOverlay-backgroundColor": "#ffffff",
        "pace-progress-backgroundColor": "#69ABFD",
        "spinner-borderColor-dark": "#191919",
        "spinner-borderColor-light": "#69ABFD",
        "hide_content_navigation": false,
        "optimizedCheckout-header-backgroundColor": "#ffffff",
        "optimizedCheckout-show-backgroundImage": false,
        "optimizedCheckout-backgroundImage": "",
        "optimizedCheckout-backgroundImage-size": "1000x400",
        "optimizedCheckout-show-logo": "custom",
        "optimizedCheckout-logo": "https://cdn11.bigcommerce.com/s-uw1sngtcbn/images/stencil/{:size}/main_logo_e_clips_usa_1684110327__48354.png",
        "optimizedCheckout-logo-size": "250x100",
        "optimizedCheckout-logo-position": "left",
        "optimizedCheckout-headingPrimary-color": "#333333",
        "optimizedCheckout-headingPrimary-font": "Google_Poppins_400",
        "optimizedCheckout-headingSecondary-color": "#333333",
        "optimizedCheckout-headingSecondary-font": "Google_Poppins_400",
        "optimizedCheckout-body-backgroundColor": "#ffffff",
        "optimizedCheckout-colorFocus": "#e74c3c",
        "optimizedCheckout-contentPrimary-color": "#2f2f2b",
        "optimizedCheckout-contentPrimary-font": "Google_Poppins_400",
        "optimizedCheckout-contentSecondary-color": "#757575",
        "optimizedCheckout-contentSecondary-font": "Google_Poppins_400",
        "optimizedCheckout-buttonPrimary-font": "Google_Poppins_700",
        "optimizedCheckout-buttonPrimary-color": "#ffffff",
        "optimizedCheckout-buttonPrimary-colorHover": "#ffffff",
        "optimizedCheckout-buttonPrimary-colorActive": "#ffffff",
        "optimizedCheckout-buttonPrimary-backgroundColor": "#e74c3c",
        "optimizedCheckout-buttonPrimary-backgroundColorHover": "#ff762b",
        "optimizedCheckout-buttonPrimary-backgroundColorActive": "#ff762b",
        "optimizedCheckout-buttonPrimary-borderColor": "#d7d7d7",
        "optimizedCheckout-buttonPrimary-borderColorHover": "transparent",
        "optimizedCheckout-buttonPrimary-borderColorActive": "transparent",
        "optimizedCheckout-buttonPrimary-borderColorDisabled": "transparent",
        "optimizedCheckout-buttonPrimary-backgroundColorDisabled": "#cccccc",
        "optimizedCheckout-buttonPrimary-colorDisabled": "#ffffff",
        "optimizedCheckout-formChecklist-backgroundColor": "#ffffff",
        "optimizedCheckout-formChecklist-color": "#2f2f2b",
        "optimizedCheckout-formChecklist-borderColor": "#cccccc",
        "optimizedCheckout-formChecklist-backgroundColorSelected": "#f5f5f5",
        "optimizedCheckout-buttonSecondary-font": "Google_Poppins_400",
        "optimizedCheckout-buttonSecondary-color": "#ffffff",
        "optimizedCheckout-buttonSecondary-colorHover": "#ffffff",
        "optimizedCheckout-buttonSecondary-colorActive": "#ffffff",
        "optimizedCheckout-buttonSecondary-backgroundColor": "#e74c3c",
        "optimizedCheckout-buttonSecondary-borderColor": "#d7d7d7",
        "optimizedCheckout-buttonSecondary-backgroundColorHover": "#ff762b",
        "optimizedCheckout-buttonSecondary-backgroundColorActive": "#ff762b",
        "optimizedCheckout-buttonSecondary-borderColorHover": "#d7d7d7",
        "optimizedCheckout-buttonSecondary-borderColorActive": "#d7d7d7",
        "optimizedCheckout-link-color": "#e74c3c",
        "optimizedCheckout-link-font": "Google_Poppins_400",
        "optimizedCheckout-discountBanner-backgroundColor": "#e5e5e5",
        "optimizedCheckout-discountBanner-textColor": "#2f2f2b",
        "optimizedCheckout-discountBanner-iconColor": "#2f2f2b",
        "optimizedCheckout-orderSummary-backgroundColor": "#ffffff",
        "optimizedCheckout-orderSummary-borderColor": "#d7d7d7",
        "optimizedCheckout-step-backgroundColor": "#e74c3c",
        "optimizedCheckout-step-textColor": "#ffffff",
        "optimizedCheckout-form-textColor": "#2f2f2b",
        "optimizedCheckout-formField-borderColor": "#d7d7d7",
        "optimizedCheckout-formField-textColor": "#2f2f2b",
        "optimizedCheckout-formField-shadowColor": "#e5e5e5",
        "optimizedCheckout-formField-placeholderColor": "#2f2f2b",
        "optimizedCheckout-formField-backgroundColor": "#ffffff",
        "optimizedCheckout-formField-errorColor": "#e74c3c",
        "optimizedCheckout-formField-inputControlColor": "#e74c3c",
        "optimizedCheckout-step-borderColor": "#d7d7d7",
        "optimizedCheckout-header-borderColor": "#d7d7d7",
        "optimizedCheckout-header-textColor": "#2f2f2b",
        "optimizedCheckout-loadingToaster-backgroundColor": "#2f2f2b",
        "optimizedCheckout-loadingToaster-textColor": "#ffffff",
        "optimizedCheckout-link-hoverColor": "#e74c3c",
        "product_sale_badges": "topleft",
        "color_badge_product_sale_badges": "#FFD800",
        "color_text_product_sale_badges": "#ffffff",
        "color_hover_product_sale_badges": "#FFE270",
        "restrict_to_login": true,
        "swatch_option_size": "45x45",
        "show_social_icons": true,
        "navigation_design": "alternate",
        "price_ranges": true,
        "pdp-price-label": "",
        "pdp-sale-price-label": "Now:",
        "pdp-non-sale-price-label": "Was:",
        "pdp-retail-price-label": "MSRP:",
        "paymentbuttons-paypal-layout": "horizontal",
        "paymentbuttons-paypal-color": "gold",
        "paymentbuttons-paypal-shape": "pill",
        "paymentbuttons-paypal-size": "small",
        "paymentbuttons-paypal-label": "checkout",
        "paymentbuttons-paypal-tagline": true,
        "paymentbuttons-paypal-fundingicons": true,
        "show_sticky_nav": true,
        "mega_nav_name": "Shop",
        "sticky_mega_nav_name": "Menu",
        "show_logo_in_sticky_nav": false,
        "show_pages_in_sticky_nav": false,
        "show_pages_in_mobile_nav": true,
        "show_brands_in_sticky_nav": false,
        "show_brands_in_main_mega_nav": false,
        "number_of_categories_per_page": 20,
        "show_pages_in_main_mobile_nav": true,
        "mobile_icon_color": "#2f2f2b",
        "show_mobile_subcategory_grid": true,
        "supported_card_type_icons": [
          "american_express",
          "diners",
          "discover",
          "mastercard",
          "visa"
        ],
        "lazyload_mode": "lazyload+lqip",
        "show-admin-bar": false,
        "sticky_nav_top_borderColor": "#FFD800",
        "sticky_nav_bgColor": "#ffffff",
        "sticky_nav_fontColor": "#333333",
        "sticky_nav_fontHoverColor": "#69ABFD",
        "mega_nav_text_color": "#757575",
        "mega_nav_text_hover_active_color": "#69ABFD",
        "phone_number_color": "#69ABFD",
        "phone_number_hover_color": "#69ABFD",
        "cart_counter_color": "#FFD800",
        "left-banner-bgColor": "#FFE270",
        "right-banner-bgColor": "#69ABFD",
        "upper_banner_column_number": 2,
        "show_homepage_upper_featured_banners_1": false,
        "featured_banner_upper_1_border_color": "#e4e3e1",
        "featured_banner_upper_1_background_color": "#ffffff",
        "show_homepage_upper_featured_banners_1_image": false,
        "featured_banner_image_1": "member-e-clips.jpg",
        "show_homepage_upper_featured_banners_1_text": false,
        "upper_banner_title_1": "",
        "upper_banner_color_title_1": "#2f2f2b",
        "upper_banner_title_1_alignment": "left-aligned",
        "upper_banner_body_text_1": "",
        "upper_banner_color_body_text_1": "#2f2f2b",
        "upper_banner_body_text_1_alignment": "left-aligned",
        "upper_banner_byline_text_1": "",
        "upper_banner_color_byline_text_1": "#2f2f2b",
        "upper_banner_byline_text_1_alignment": "left-aligned",
        "featured_banner_name_1": "",
        "featured_banner_link_1": "",
        "external_link1": false,
        "show_homepage_upper_featured_banners_2": false,
        "featured_banner_upper_2_border_color": "#e4e3e1",
        "featured_banner_upper_2_background_color": "#ffffff",
        "show_homepage_upper_featured_banners_2_image": false,
        "featured_banner_image_2": "catalog-e-clips.jpg",
        "show_homepage_upper_featured_banners_2_text": false,
        "upper_banner_title_2": "",
        "upper_banner_color_title_2": "#2f2f2b",
        "upper_banner_title_2_alignment": "left-aligned",
        "upper_banner_body_text_2": "",
        "upper_banner_color_body_text_2": "#2f2f2b",
        "upper_banner_body_text_2_alignment": "left-aligned",
        "upper_banner_byline_text_2": "",
        "upper_banner_color_byline_text_2": "#2f2f2b",
        "upper_banner_byline_text_2_alignment": "left-aligned",
        "featured_banner_name_2": "",
        "featured_banner_link_2": "",
        "external_link2": false,
        "mid_banner_column_number": 2,
        "show_homepage_mid_featured_banners_1": false,
        "featured_banner_mid_1_border_color": "#e4e3e1",
        "featured_banner_mid_1_background_color": "#ffffff",
        "show_homepage_mid_featured_banners_1_image": false,
        "featured_banner_image_3": "",
        "show_homepage_mid_featured_banners_1_text": false,
        "mid_banner_title_1": "",
        "mid_banner_color_title_1": "#2f2f2b",
        "mid_banner_title_1_alignment": "left-aligned",
        "mid_banner_body_text_1": "",
        "mid_banner_color_body_text_1": "#2f2f2b",
        "mid_banner_body_text_1_alignment": "left-aligned",
        "mid_banner_byline_text_1": "",
        "mid_banner_color_byline_text_1": "#2f2f2b",
        "mid_banner_byline_text_1_alignment": "left-aligned",
        "featured_banner_name_3": "",
        "featured_banner_link_3": "",
        "external_link3": false,
        "show_homepage_mid_featured_banners_2": false,
        "featured_banner_mid_2_border_color": "#e4e3e1",
        "featured_banner_mid_2_background_color": "#ffffff",
        "show_homepage_mid_featured_banners_2_image": false,
        "featured_banner_image_4": "",
        "show_homepage_mid_featured_banners_2_text": false,
        "mid_banner_title_2": "",
        "mid_banner_color_title_2": "#2f2f2b",
        "mid_banner_title_2_alignment": "left-aligned",
        "mid_banner_body_text_2": "",
        "mid_banner_color_body_text_2": "#2f2f2b",
        "mid_banner_body_text_2_alignment": "left-aligned",
        "mid_banner_byline_text_2": "",
        "mid_banner_color_byline_text_2": "#2f2f2b",
        "mid_banner_byline_text_2_alignment": "left-aligned",
        "featured_banner_name_4": "",
        "featured_banner_link_4": "",
        "external_link4": false,
        "lower_banner_column_number": 2,
        "show_homepage_lower_featured_banners_1": false,
        "featured_banner_lower_1_border_color": "#e4e3e1",
        "featured_banner_lower_1_background_color": "#ffffff",
        "show_homepage_lower_featured_banners_1_image": false,
        "featured_banner_image_5": "",
        "show_homepage_lower_featured_banners_1_text": false,
        "lower_banner_title_1": "",
        "lower_banner_color_title_1": "#2f2f2b",
        "lower_banner_title_1_alignment": "left-aligned",
        "lower_banner_body_text_1": "",
        "lower_banner_color_body_text_1": "#2f2f2b",
        "lower_banner_body_text_1_alignment": "left-aligned",
        "lower_banner_byline_text_1": "",
        "lower_banner_color_byline_text_1": "#2f2f2b",
        "lower_banner_byline_text_1_alignment": "left-aligned",
        "featured_banner_name_5": "",
        "featured_banner_link_5": "",
        "external_link5": false,
        "show_homepage_lower_featured_banners_2": false,
        "featured_banner_lower_2_border_color": "#e4e3e1",
        "featured_banner_lower_2_background_color": "#ffffff",
        "show_homepage_lower_featured_banners_2_image": false,
        "featured_banner_image_6": "",
        "show_homepage_lower_featured_banners_2_text": false,
        "lower_banner_title_2": "",
        "lower_banner_color_title_2": "#2f2f2b",
        "lower_banner_title_2_alignment": "left-aligned",
        "lower_banner_body_text_2": "",
        "lower_banner_color_body_text_2": "#2f2f2b",
        "lower_banner_body_text_2_alignment": "left-aligned",
        "lower_banner_byline_text_2": "",
        "lower_banner_color_byline_text_2": "#2f2f2b",
        "lower_banner_byline_text_2_alignment": "left-aligned",
        "featured_banner_name_6": "",
        "featured_banner_link_6": "",
        "external_link6": false,
        "main-nav-backgroundColor": "#FFD800",
        "hide_category_navigation": true,
        "footer-headingsColor": "#ffffff",
        "footer-textColor": "#b2b2b2",
        "footer-bottom-backgroundColor": "#191919",
        "footer-bottom-textColor": "#b2b2b2",
        "footer_payment_section_border_color": "#363636",
        "mobile_menu_icon_color": "#2f2f2b"
      }
    },
    {
      "name": "Cool",
      "id": "cool",
      "meta": {
        "desktop_screenshot": "desktop_cool.jpg",
        "mobile_screenshot": "mobile_cool.jpg",
        "description": "Vault provides a quality free theme that allows BigCommerce store owners to create an inviting and interesting storefront quickly and easily. Vault's advanced Store Design capabilities gives you the power and flexibility to add image and text banners to your homepage without having to modify code. Its clean look offers better readability thanks to the clear layout, timeless font, and color highlights. With the built in color pickers, you can quickly change the look of nearly every element within the theme. Vault offers a built-in mega menu that is the perfect choice for large menus and is versatile enough to handle both small and large catalogs alike, all while keeping a sleek and modern design.",
        "demo_url": "https://vault-cool-demo.mybigcommerce.com/",
        "optimized_for": [
          "multi_purpose",
          "mobile_tablet_desktop",
          "sales_discounts",
          "large_catalog"
        ],
        "industries": [
          "sports_recreation"
        ]
      },
      "settings": {
        "sticky_nav_top_borderColor": "#6293d6",
        "sticky_nav_bgColor": "#ffffff",
        "sticky_nav_fontColor": "#333333",
        "sticky_nav_fontHoverColor": "#6293d6",
        "mega_nav_text_color": "#2f2f2b",
        "mega_nav_text_hover_active_color": "#6293d6",
        "phone_number_color": "#6293d6",
        "phone_number_hover_color": "#81c5ff",
        "cart_counter_color": "#6293d6",
        "logo-position": "left",
        "left-banner-bgColor": "#6293d6",
        "right-banner-bgColor": "#81c5ff",
        "upper_banner_column_number": 2,
        "show_homepage_upper_featured_banners_1": false,
        "featured_banner_upper_1_border_color": "#e4e3e1",
        "featured_banner_upper_1_background_color": "#ffffff",
        "show_homepage_upper_featured_banners_1_image": false,
        "featured_banner_image_1": "",
        "show_homepage_upper_featured_banners_1_text": false,
        "upper_banner_title_1": "",
        "upper_banner_color_title_1": "#2f2f2b",
        "upper_banner_title_1_alignment": "left-aligned",
        "upper_banner_body_text_1": "",
        "upper_banner_color_body_text_1": "#2f2f2b",
        "upper_banner_body_text_1_alignment": "left-aligned",
        "upper_banner_byline_text_1": "",
        "upper_banner_color_byline_text_1": "#2f2f2b",
        "upper_banner_byline_text_1_alignment": "left-aligned",
        "featured_banner_name_1": "",
        "featured_banner_link_1": "",
        "external_link1": false,
        "show_homepage_upper_featured_banners_2": false,
        "featured_banner_upper_2_border_color": "#e4e3e1",
        "featured_banner_upper_2_background_color": "#ffffff",
        "show_homepage_upper_featured_banners_2_image": false,
        "featured_banner_image_2": "",
        "show_homepage_upper_featured_banners_2_text": false,
        "upper_banner_title_2": "",
        "upper_banner_color_title_2": "#2f2f2b",
        "upper_banner_title_2_alignment": "left-aligned",
        "upper_banner_body_text_2": "",
        "upper_banner_color_body_text_2": "#2f2f2b",
        "upper_banner_body_text_2_alignment": "left-aligned",
        "upper_banner_byline_text_2": "",
        "upper_banner_color_byline_text_2": "#2f2f2b",
        "upper_banner_byline_text_2_alignment": "left-aligned",
        "featured_banner_name_2": "",
        "featured_banner_link_2": "",
        "external_link2": false,
        "mid_banner_column_number": 2,
        "show_homepage_mid_featured_banners_1": false,
        "featured_banner_mid_1_border_color": "#e4e3e1",
        "featured_banner_mid_1_background_color": "#ffffff",
        "show_homepage_mid_featured_banners_1_image": false,
        "featured_banner_image_3": "",
        "show_homepage_mid_featured_banners_1_text": false,
        "mid_banner_title_1": "",
        "mid_banner_color_title_1": "#2f2f2b",
        "mid_banner_title_1_alignment": "left-aligned",
        "mid_banner_body_text_1": "",
        "mid_banner_color_body_text_1": "#2f2f2b",
        "mid_banner_body_text_1_alignment": "left-aligned",
        "mid_banner_byline_text_1": "",
        "mid_banner_color_byline_text_1": "#2f2f2b",
        "mid_banner_byline_text_1_alignment": "left-aligned",
        "featured_banner_name_3": "",
        "featured_banner_link_3": "",
        "external_link3": false,
        "show_homepage_mid_featured_banners_2": false,
        "featured_banner_mid_2_border_color": "#e4e3e1",
        "featured_banner_mid_2_background_color": "#ffffff",
        "show_homepage_mid_featured_banners_2_image": false,
        "featured_banner_image_4": "",
        "show_homepage_mid_featured_banners_2_text": false,
        "mid_banner_title_2": "",
        "mid_banner_color_title_2": "#2f2f2b",
        "mid_banner_title_2_alignment": "left-aligned",
        "mid_banner_body_text_2": "",
        "mid_banner_color_body_text_2": "#2f2f2b",
        "mid_banner_body_text_2_alignment": "left-aligned",
        "mid_banner_byline_text_2": "",
        "mid_banner_color_byline_text_2": "#2f2f2b",
        "mid_banner_byline_text_2_alignment": "left-aligned",
        "featured_banner_name_4": "",
        "featured_banner_link_4": "",
        "external_link4": false,
        "lower_banner_column_number": 2,
        "show_homepage_lower_featured_banners_1": false,
        "featured_banner_lower_1_border_color": "#e4e3e1",
        "featured_banner_lower_1_background_color": "#ffffff",
        "show_homepage_lower_featured_banners_1_image": false,
        "featured_banner_image_5": "",
        "show_homepage_lower_featured_banners_1_text": false,
        "lower_banner_title_1": "",
        "lower_banner_color_title_1": "#2f2f2b",
        "lower_banner_title_1_alignment": "left-aligned",
        "lower_banner_body_text_1": "",
        "lower_banner_color_body_text_1": "#2f2f2b",
        "lower_banner_body_text_1_alignment": "left-aligned",
        "lower_banner_byline_text_1": "",
        "lower_banner_color_byline_text_1": "#2f2f2b",
        "lower_banner_byline_text_1_alignment": "left-aligned",
        "featured_banner_name_5": "",
        "featured_banner_link_5": "",
        "external_link5": false,
        "show_homepage_lower_featured_banners_2": false,
        "featured_banner_lower_2_border_color": "#e4e3e1",
        "featured_banner_lower_2_background_color": "#ffffff",
        "show_homepage_lower_featured_banners_2_image": false,
        "featured_banner_image_6": "",
        "show_homepage_lower_featured_banners_2_text": false,
        "lower_banner_title_2": "",
        "lower_banner_color_title_2": "#2f2f2b",
        "lower_banner_title_2_alignment": "left-aligned",
        "lower_banner_body_text_2": "",
        "lower_banner_color_body_text_2": "#2f2f2b",
        "lower_banner_body_text_2_alignment": "left-aligned",
        "lower_banner_byline_text_2": "",
        "lower_banner_color_byline_text_2": "#2f2f2b",
        "lower_banner_byline_text_2_alignment": "left-aligned",
        "featured_banner_name_6": "",
        "featured_banner_link_6": "",
        "external_link6": false,
        "main-nav-backgroundColor": "#ebebeb",
        "hide_category_navigation": true,
        "homepage_featured_products_column_count": 5,
        "homepage_featured_products_count": 12,
        "homepage_top_products_column_count": 5,
        "homepage_top_products_count": 12,
        "homepage_new_products_column_count": 5,
        "homepage_new_products_count": 12,
        "body-font": "Google_Poppins_400",
        "headings-font": "Google_Poppins_700",
        "color-textBase": "#2f2f2b",
        "color-textBase--hover": "#6293d6",
        "color-textBase--active": "#6293d6",
        "color-textSecondary": "#a2a2a2",
        "color-textSecondary--hover": "#81c5ff",
        "color-textSecondary--active": "#81c5ff",
        "color-textLink": "#6293d6",
        "color-textLink--hover": "#81c5ff",
        "color-textLink--active": "#81c5ff",
        "footer-linkHoverColor": "#81c5ff",
        "color-textHeading": "#2f2f2b",
        "color-primary": "#6293d6",
        "color-primaryDark": "#6293d6",
        "color-primaryDarker": "#6293d6",
        "color-primaryLight": "#81c5ff",
        "color-secondary": "#81c5ff",
        "color-secondaryDark": "#81c5ff",
        "color-secondaryDarker": "#81c5ff",
        "color-error": "#e74c3c",
        "color-errorLight": "#e74c3c",
        "color-info": "#ffffff",
        "color-infoLight": "#dfdfdf",
        "color-success": "#01a74f",
        "color-successLight": "#01a74f",
        "color-warning": "#ff762b",
        "color-warningLight": "#ff762b",
        "color-black": "#2f2f2b",
        "color-white": "#ffffff",
        "color-whitesBase": "#ffffff",
        "color-grey": "#d7d7d7",
        "color-greyDarkest": "#ffffff",
        "color-greyDarker": "#cccccc",
        "color-greyDark": "#999999",
        "color-greyMedium": "#999999",
        "color-greyLight": "#757575",
        "color-greyLighter": "#666666",
        "color-greyLightest": "#e5e5e5",
        "button--default-color": "#ffffff",
        "button--default-colorHover": "#ffffff",
        "button--default-colorActive": "#ffffff",
        "button--default-backgroundColor": "#6293d6",
        "button--default-backgroundColorHover": "#81c5ff",
        "button--default-backgroundColorActive": "#81c5ff",
        "button--default-borderColor": "#6293d6",
        "button--default-borderColorHover": "#81c5ff",
        "button--default-borderColorActive": "#81c5ff",
        "button--primary-color": "#ffffff",
        "button--primary-colorHover": "#ffffff",
        "button--primary-colorActive": "#ffffff",
        "button--primary-backgroundColor": "#6293d6",
        "button--primary-backgroundColorHover": "#81c5ff",
        "button--primary-backgroundColorActive": "#81c5ff",
        "button--disabled-color": "#e5e5e5",
        "button--disabled-backgroundColor": "#757575",
        "button--disabled-borderColor": "#757575",
        "icon-color": "#545454",
        "icon-color-hover": "#81c5ff",
        "button--icon-svg-color": "#2f2f2b",
        "icon-ratingEmpty": "#c1c1c1",
        "icon-ratingFull": "#ff9600",
        "carousel-bgColor": "#ffffff",
        "carousel-title-color": "#2f2f2b",
        "carousel-description-color": "#2f2f2b",
        "carousel-dot-color": "#999999",
        "carousel-dot-color-active": "#6293d6",
        "carousel-dot-bgColor": "#ffffff",
        "carousel-arrow-color": "#1f1f1f",
        "carousel-arrow-bgColor": "#ffffff",
        "carousel-arrow-borderColor": "#d7d7d7",
        "card-title-color": "#2f2f2b",
        "card-title-color-hover": "#6293d6",
        "card-figcaption-button-background": "#ffffff",
        "card-figcaption-button-color": "#1f1f1f",
        "card--alternate-backgroundColor": "#555555",
        "card--alternate-borderColor": "#d7d7d7",
        "card--alternate-color--hover": "#ffffff",
        "card--alternate-textColor": "#ffffff",
        "card--alternate-hover-color": "#6293d6",
        "form-label-font-color": "#2f2f2b",
        "input-font-color": "#2f2f2b",
        "input-border-color": "#d7d7d7",
        "input-border-color-active": "#9f9f9f",
        "input-bg-color": "#ffffff",
        "input-disabled-bg": "#e5e5e5",
        "select-bg-color": "#ffffff",
        "select-arrow-color": "#999999",
        "checkRadio-color": "#2f2f2b",
        "checkRadio-backgroundColor": "#ffffff",
        "checkRadio-borderColor": "#999999",
        "alert-backgroundColor": "#e5e5e5",
        "alert-color": "#ffffff",
        "alert-color-alt": "#e5e5e5",
        "storeName-color": "#2f2f2b",
        "body-bg": "#ffffff",
        "header-backgroundColor": "#ffffff",
        "footer-backgroundColor": "#1f1f1f",
        "footer-headingsColor": "#ffffff",
        "footer-textColor": "#b2b2b2",
        "footer-bottom-backgroundColor": "#191919",
        "footer-bottom-textColor": "#b2b2b2",
        "footer_payment_section_border_color": "#363636",
        "navUser-color": "#363633",
        "navUser-color-hover": "#6293d6",
        "navUser-dropdown-backgroundColor": "#ffffff",
        "navUser-dropdown-borderColor": "#d7d7d7",
        "navUser-indicator-backgroundColor": "#6293d6",
        "navPages-color": "#2f2f2b",
        "navPages-color-hover": "#6293d6",
        "navPages-subMenu-backgroundColor": "#ffffff",
        "navPages-subMenu-fontColor": "#2f2f2b",
        "navPages-subMenu-separatorColor": "#d7d7d7",
        "dropdown--quickSearch-backgroundColor": "transparent",
        "dropdown--wishList-backgroundColor": "#ffffff",
        "blockquote-cite-font-color": "#999999",
        "container-border-global-color-base": "#d7d7d7",
        "container-fill-base": "#ffffff",
        "container-fill-dark": "#f4f0ed",
        "label-backgroundColor": "#ffffff",
        "label-color": "#ffffff",
        "overlay-backgroundColor": "#333333",
        "loadingOverlay-backgroundColor": "#444444",
        "pace-progress-backgroundColor": "#81c5ff",
        "spinner-borderColor-dark": "#191919",
        "spinner-borderColor-light": "#81c5ff",
        "optimizedCheckout-header-backgroundColor": "#ffffff",
        "optimizedCheckout-show-backgroundImage": false,
        "optimizedCheckout-backgroundImage": "",
        "optimizedCheckout-backgroundImage-size": "1000x400",
        "optimizedCheckout-show-logo": "none",
        "optimizedCheckout-logo": "",
        "optimizedCheckout-logo-size": "250x100",
        "optimizedCheckout-logo-position": "left",
        "optimizedCheckout-headingPrimary-color": "#333333",
        "optimizedCheckout-headingPrimary-font": "Google_Poppins_400",
        "optimizedCheckout-headingSecondary-color": "#333333",
        "optimizedCheckout-headingSecondary-font": "Google_Poppins_400",
        "optimizedCheckout-body-backgroundColor": "#ffffff",
        "optimizedCheckout-colorFocus": "#6293d6",
        "optimizedCheckout-contentPrimary-color": "#2f2f2b",
        "optimizedCheckout-contentPrimary-font": "Google_Poppins_400",
        "optimizedCheckout-contentSecondary-color": "#757575",
        "optimizedCheckout-contentSecondary-font": "Google_Poppins_400",
        "optimizedCheckout-buttonPrimary-font": "Google_Poppins_700",
        "optimizedCheckout-buttonPrimary-color": "#ffffff",
        "optimizedCheckout-buttonPrimary-colorHover": "#ffffff",
        "optimizedCheckout-buttonPrimary-colorActive": "#ffffff",
        "optimizedCheckout-buttonPrimary-backgroundColor": "#6293d6",
        "optimizedCheckout-buttonPrimary-backgroundColorHover": "#81c5ff",
        "optimizedCheckout-buttonPrimary-backgroundColorActive": "#81c5ff",
        "optimizedCheckout-buttonPrimary-borderColor": "#d7d7d7",
        "optimizedCheckout-buttonPrimary-borderColorHover": "transparent",
        "optimizedCheckout-buttonPrimary-borderColorActive": "transparent",
        "optimizedCheckout-buttonPrimary-borderColorDisabled": "transparent",
        "optimizedCheckout-buttonPrimary-backgroundColorDisabled": "#cccccc",
        "optimizedCheckout-buttonPrimary-colorDisabled": "#ffffff",
        "optimizedCheckout-formChecklist-backgroundColor": "#ffffff",
        "optimizedCheckout-formChecklist-color": "#2f2f2b",
        "optimizedCheckout-formChecklist-borderColor": "#d7d7d7",
        "optimizedCheckout-formChecklist-backgroundColorSelected": "#f5f5f5",
        "optimizedCheckout-buttonSecondary-font": "Google_Poppins_400",
        "optimizedCheckout-buttonSecondary-color": "#ffffff",
        "optimizedCheckout-buttonSecondary-colorHover": "#ffffff",
        "optimizedCheckout-buttonSecondary-colorActive": "#ffffff",
        "optimizedCheckout-buttonSecondary-backgroundColor": "#6293d6",
        "optimizedCheckout-buttonSecondary-borderColor": "#d7d7d7",
        "optimizedCheckout-buttonSecondary-backgroundColorHover": "#81c5ff",
        "optimizedCheckout-buttonSecondary-backgroundColorActive": "#81c5ff",
        "optimizedCheckout-buttonSecondary-borderColorHover": "#d7d7d7",
        "optimizedCheckout-buttonSecondary-borderColorActive": "#d7d7d7",
        "optimizedCheckout-link-color": "#6293d6",
        "optimizedCheckout-link-font": "Google_Poppins_400",
        "optimizedCheckout-discountBanner-backgroundColor": "#e5e5e5",
        "optimizedCheckout-discountBanner-textColor": "#2f2f2b",
        "optimizedCheckout-discountBanner-iconColor": "#2f2f2b",
        "optimizedCheckout-orderSummary-backgroundColor": "#ffffff",
        "optimizedCheckout-orderSummary-borderColor": "#d7d7d7",
        "optimizedCheckout-step-backgroundColor": "#6293d6",
        "optimizedCheckout-step-textColor": "#ffffff",
        "optimizedCheckout-form-textColor": "#2f2f2b",
        "optimizedCheckout-formField-borderColor": "#d7d7d7",
        "optimizedCheckout-formField-textColor": "#2f2f2b",
        "optimizedCheckout-formField-shadowColor": "#e5e5e5",
        "optimizedCheckout-formField-placeholderColor": "#2f2f2b",
        "optimizedCheckout-formField-backgroundColor": "#ffffff",
        "optimizedCheckout-formField-errorColor": "#e74c3c",
        "optimizedCheckout-formField-inputControlColor": "#6293d6",
        "optimizedCheckout-step-borderColor": "#d7d7d7",
        "optimizedCheckout-header-borderColor": "#d7d7d7",
        "optimizedCheckout-header-textColor": "#2f2f2b",
        "optimizedCheckout-loadingToaster-backgroundColor": "#2f2f2b",
        "optimizedCheckout-loadingToaster-textColor": "#ffffff",
        "optimizedCheckout-link-hoverColor": "#81c5ff",
        "color_badge_product_sale_badges": "#007dc6",
        "color_text_product_sale_badges": "#ffffff",
        "color_hover_product_sale_badges": "#81c5ff",
        "mobile_menu_icon_color": "#2f2f2b"
      }
    },
    {
      "name": "Natural",
      "id": "natural",
      "meta": {
        "desktop_screenshot": "desktop_natural.jpg",
        "mobile_screenshot": "mobile_natural.jpg",
        "description": "Vault provides a quality free theme that allows BigCommerce store owners to create an inviting and interesting storefront quickly and easily. Vault's advanced Store Design capabilities gives you the power and flexibility to add image and text banners to your homepage without having to modify code. Its clean look offers better readability thanks to the clear layout, timeless font, and color highlights. With the built in color pickers, you can quickly change the look of nearly every element within the theme. Vault offers a built-in mega menu that is the perfect choice for large menus and is versatile enough to handle both small and large catalogs alike, all while keeping a sleek and modern design.",
        "demo_url": "https://vault-natural-demo.mybigcommerce.com/",
        "optimized_for": [
          "multi_purpose",
          "mobile_tablet_desktop",
          "sales_discounts",
          "large_catalog"
        ],
        "industries": [
          "home_garden"
        ]
      },
      "settings": {
        "sticky_nav_top_borderColor": "#185d34",
        "sticky_nav_bgColor": "#ffffff",
        "sticky_nav_fontColor": "#333333",
        "sticky_nav_fontHoverColor": "#185d34",
        "mega_nav_text_color": "#2f2f2b",
        "mega_nav_text_hover_active_color": "#185d34",
        "phone_number_color": "#185d34",
        "phone_number_hover_color": "#01a74f",
        "cart_counter_color": "#185d34",
        "logo-position": "left",
        "left-banner-bgColor": "#185d34",
        "right-banner-bgColor": "#01a74f",
        "upper_banner_column_number": 2,
        "show_homepage_upper_featured_banners_1": false,
        "featured_banner_upper_1_border_color": "#e4e3e1",
        "featured_banner_upper_1_background_color": "#ffffff",
        "show_homepage_upper_featured_banners_1_image": false,
        "featured_banner_image_1": "",
        "show_homepage_upper_featured_banners_1_text": false,
        "upper_banner_title_1": "",
        "upper_banner_color_title_1": "#2f2f2b",
        "upper_banner_title_1_alignment": "left-aligned",
        "upper_banner_body_text_1": "",
        "upper_banner_color_body_text_1": "#2f2f2b",
        "upper_banner_body_text_1_alignment": "left-aligned",
        "upper_banner_byline_text_1": "",
        "upper_banner_color_byline_text_1": "#2f2f2b",
        "upper_banner_byline_text_1_alignment": "left-aligned",
        "featured_banner_name_1": "",
        "featured_banner_link_1": "",
        "external_link1": false,
        "show_homepage_upper_featured_banners_2": false,
        "featured_banner_upper_2_border_color": "#e4e3e1",
        "featured_banner_upper_2_background_color": "#ffffff",
        "show_homepage_upper_featured_banners_2_image": false,
        "featured_banner_image_2": "",
        "show_homepage_upper_featured_banners_2_text": false,
        "upper_banner_title_2": "",
        "upper_banner_color_title_2": "#2f2f2b",
        "upper_banner_title_2_alignment": "left-aligned",
        "upper_banner_body_text_2": "",
        "upper_banner_color_body_text_2": "#2f2f2b",
        "upper_banner_body_text_2_alignment": "left-aligned",
        "upper_banner_byline_text_2": "",
        "upper_banner_color_byline_text_2": "#2f2f2b",
        "upper_banner_byline_text_2_alignment": "left-aligned",
        "featured_banner_name_2": "",
        "featured_banner_link_2": "",
        "external_link2": false,
        "mid_banner_column_number": 2,
        "show_homepage_mid_featured_banners_1": false,
        "featured_banner_mid_1_border_color": "#e4e3e1",
        "featured_banner_mid_1_background_color": "#ffffff",
        "show_homepage_mid_featured_banners_1_image": false,
        "featured_banner_image_3": "",
        "show_homepage_mid_featured_banners_1_text": false,
        "mid_banner_title_1": "",
        "mid_banner_color_title_1": "#2f2f2b",
        "mid_banner_title_1_alignment": "left-aligned",
        "mid_banner_body_text_1": "",
        "mid_banner_color_body_text_1": "#2f2f2b",
        "mid_banner_body_text_1_alignment": "left-aligned",
        "mid_banner_byline_text_1": "",
        "mid_banner_color_byline_text_1": "#2f2f2b",
        "mid_banner_byline_text_1_alignment": "left-aligned",
        "featured_banner_name_3": "",
        "featured_banner_link_3": "",
        "external_link3": false,
        "show_homepage_mid_featured_banners_2": false,
        "featured_banner_mid_2_border_color": "#e4e3e1",
        "featured_banner_mid_2_background_color": "#ffffff",
        "show_homepage_mid_featured_banners_2_image": false,
        "featured_banner_image_4": "",
        "show_homepage_mid_featured_banners_2_text": false,
        "mid_banner_title_2": "",
        "mid_banner_color_title_2": "#2f2f2b",
        "mid_banner_title_2_alignment": "left-aligned",
        "mid_banner_body_text_2": "",
        "mid_banner_color_body_text_2": "#2f2f2b",
        "mid_banner_body_text_2_alignment": "left-aligned",
        "mid_banner_byline_text_2": "",
        "mid_banner_color_byline_text_2": "#2f2f2b",
        "mid_banner_byline_text_2_alignment": "left-aligned",
        "featured_banner_name_4": "",
        "featured_banner_link_4": "",
        "external_link4": false,
        "lower_banner_column_number": 2,
        "show_homepage_lower_featured_banners_1": false,
        "featured_banner_lower_1_border_color": "#e4e3e1",
        "featured_banner_lower_1_background_color": "#ffffff",
        "show_homepage_lower_featured_banners_1_image": false,
        "featured_banner_image_5": "",
        "show_homepage_lower_featured_banners_1_text": false,
        "lower_banner_title_1": "",
        "lower_banner_color_title_1": "#2f2f2b",
        "lower_banner_title_1_alignment": "left-aligned",
        "lower_banner_body_text_1": "",
        "lower_banner_color_body_text_1": "#2f2f2b",
        "lower_banner_body_text_1_alignment": "left-aligned",
        "lower_banner_byline_text_1": "",
        "lower_banner_color_byline_text_1": "#2f2f2b",
        "lower_banner_byline_text_1_alignment": "left-aligned",
        "featured_banner_name_5": "",
        "featured_banner_link_5": "",
        "external_link5": false,
        "show_homepage_lower_featured_banners_2": false,
        "featured_banner_lower_2_border_color": "#e4e3e1",
        "featured_banner_lower_2_background_color": "#ffffff",
        "show_homepage_lower_featured_banners_2_image": false,
        "featured_banner_image_6": "",
        "show_homepage_lower_featured_banners_2_text": false,
        "lower_banner_title_2": "",
        "lower_banner_color_title_2": "#2f2f2b",
        "lower_banner_title_2_alignment": "left-aligned",
        "lower_banner_body_text_2": "",
        "lower_banner_color_body_text_2": "#2f2f2b",
        "lower_banner_body_text_2_alignment": "left-aligned",
        "lower_banner_byline_text_2": "",
        "lower_banner_color_byline_text_2": "#2f2f2b",
        "lower_banner_byline_text_2_alignment": "left-aligned",
        "featured_banner_name_6": "",
        "featured_banner_link_6": "",
        "external_link6": false,
        "main-nav-backgroundColor": "#ebebeb",
        "hide_category_navigation": true,
        "homepage_featured_products_column_count": 5,
        "homepage_featured_products_count": 12,
        "homepage_top_products_column_count": 5,
        "homepage_top_products_count": 12,
        "homepage_new_products_column_count": 5,
        "homepage_new_products_count": 12,
        "body-font": "Google_Poppins_400",
        "headings-font": "Google_Poppins_700",
        "color-textBase": "#2f2f2b",
        "color-textBase--hover": "#01a74f",
        "color-textBase--active": "#01a74f",
        "color-textSecondary": "#a2a2a2",
        "color-textSecondary--hover": "#01a74f",
        "color-textSecondary--active": "#01a74f",
        "color-textLink": "#185d34",
        "color-textLink--hover": "#01a74f",
        "color-textLink--active": "#01a74f",
        "footer-linkHoverColor": "#01a74f",
        "color-textHeading": "#2f2f2b",
        "color-primary": "#185d34",
        "color-primaryDark": "#185d34",
        "color-primaryDarker": "#185d34",
        "color-primaryLight": "#01a74f",
        "color-secondary": "#01a74f",
        "color-secondaryDark": "#01a74f",
        "color-secondaryDarker": "#01a74f",
        "color-error": "#e74c3c",
        "color-errorLight": "#e74c3c",
        "color-info": "#ffffff",
        "color-infoLight": "#dfdfdf",
        "color-success": "#01a74f",
        "color-successLight": "#01a74f",
        "color-warning": "#ff762b",
        "color-warningLight": "#ff762b",
        "color-black": "#2f2f2b",
        "color-white": "#ffffff",
        "color-whitesBase": "#ffffff",
        "color-grey": "#d7d7d7",
        "color-greyDarkest": "#ffffff",
        "color-greyDarker": "#cccccc",
        "color-greyDark": "#999999",
        "color-greyMedium": "#999999",
        "color-greyLight": "#757575",
        "color-greyLighter": "#666666",
        "color-greyLightest": "#e5e5e5",
        "button--default-color": "#cccccc",
        "button--default-colorHover": "#ffffff",
        "button--default-colorActive": "#ffffff",
        "button--default-backgroundColor": "#185d34",
        "button--default-backgroundColorHover": "#01a74f",
        "button--default-backgroundColorActive": "#01a74f",
        "button--default-borderColor": "#185d34",
        "button--default-borderColorHover": "#01a74f",
        "button--default-borderColorActive": "#01a74f",
        "button--primary-color": "#ffffff",
        "button--primary-colorHover": "#ffffff",
        "button--primary-colorActive": "#ffffff",
        "button--primary-backgroundColor": "#185d34",
        "button--primary-backgroundColorHover": "#01a74f",
        "button--primary-backgroundColorActive": "#01a74f",
        "button--disabled-color": "#e5e5e5",
        "button--disabled-backgroundColor": "#757575",
        "button--disabled-borderColor": "#757575",
        "icon-color": "#545454",
        "icon-color-hover": "#01a74f",
        "button--icon-svg-color": "#2f2f2b",
        "icon-ratingEmpty": "#c1c1c1",
        "icon-ratingFull": "#ff9600",
        "carousel-bgColor": "#ffffff",
        "carousel-title-color": "#2f2f2b",
        "carousel-description-color": "#2f2f2b",
        "carousel-dot-color": "#999999",
        "carousel-dot-color-active": "#185d34",
        "carousel-dot-bgColor": "#ffffff",
        "carousel-arrow-color": "#1f1f1f",
        "carousel-arrow-bgColor": "#ffffff",
        "carousel-arrow-borderColor": "#d7d7d7",
        "card-title-color": "#2f2f2b",
        "card-title-color-hover": "#01a74f",
        "card-figcaption-button-background": "#ffffff",
        "card-figcaption-button-color": "#1f1f1f",
        "card--alternate-backgroundColor": "#555555",
        "card--alternate-borderColor": "#d7d7d7",
        "card--alternate-color--hover": "#ffffff",
        "card--alternate-textColor": "#ffffff",
        "card--alternate-hover-color": "#01a74f",
        "form-label-font-color": "#2f2f2b",
        "input-font-color": "#2f2f2b",
        "input-border-color": "#d7d7d7",
        "input-border-color-active": "#9f9f9f",
        "input-bg-color": "#ffffff",
        "input-disabled-bg": "#e5e5e5",
        "select-bg-color": "#ffffff",
        "select-arrow-color": "#999999",
        "checkRadio-color": "#2f2f2b",
        "checkRadio-backgroundColor": "#ffffff",
        "checkRadio-borderColor": "#999999",
        "alert-backgroundColor": "#e5e5e5",
        "alert-color": "#ffffff",
        "alert-color-alt": "#e5e5e5",
        "storeName-color": "#2f2f2b",
        "body-bg": "#ffffff",
        "header-backgroundColor": "#ffffff",
        "footer-backgroundColor": "#1f1f1f",
        "footer-headingsColor": "#ffffff",
        "footer-textColor": "#b2b2b2",
        "footer-bottom-backgroundColor": "#191919",
        "footer-bottom-textColor": "#b2b2b2",
        "footer_payment_section_border_color": "#363636",
        "navUser-color": "#363633",
        "navUser-color-hover": "#01a74f",
        "navUser-dropdown-backgroundColor": "#ffffff",
        "navUser-dropdown-borderColor": "#d7d7d7",
        "navUser-indicator-backgroundColor": "#185d34",
        "navPages-color": "#2f2f2b",
        "navPages-color-hover": "#01a74f",
        "navPages-subMenu-backgroundColor": "#ffffff",
        "navPages-subMenu-fontColor": "#2f2f2b",
        "navPages-subMenu-separatorColor": "#d7d7d7",
        "dropdown--quickSearch-backgroundColor": "transparent",
        "dropdown--wishList-backgroundColor": "#ffffff",
        "blockquote-cite-font-color": "#999999",
        "container-border-global-color-base": "#d7d7d7",
        "container-fill-base": "#ffffff",
        "container-fill-dark": "#f4f0ed",
        "label-backgroundColor": "#ffffff",
        "label-color": "#ffffff",
        "overlay-backgroundColor": "#333333",
        "loadingOverlay-backgroundColor": "#444444",
        "pace-progress-backgroundColor": "#01a74f",
        "spinner-borderColor-dark": "#191919",
        "spinner-borderColor-light": "#01a74f",
        "optimizedCheckout-header-backgroundColor": "#ffffff",
        "optimizedCheckout-show-backgroundImage": false,
        "optimizedCheckout-backgroundImage": "",
        "optimizedCheckout-backgroundImage-size": "1000x400",
        "optimizedCheckout-show-logo": "none",
        "optimizedCheckout-logo": "",
        "optimizedCheckout-logo-size": "250x100",
        "optimizedCheckout-logo-position": "left",
        "optimizedCheckout-headingPrimary-color": "#2f2f2b",
        "optimizedCheckout-headingPrimary-font": "Google_Poppins_400",
        "optimizedCheckout-headingSecondary-color": "#2f2f2b",
        "optimizedCheckout-headingSecondary-font": "Google_Poppins_400",
        "optimizedCheckout-body-backgroundColor": "#ffffff",
        "optimizedCheckout-colorFocus": "#01a74f",
        "optimizedCheckout-contentPrimary-color": "#2f2f2b",
        "optimizedCheckout-contentPrimary-font": "Google_Poppins_400",
        "optimizedCheckout-contentSecondary-color": "#757575",
        "optimizedCheckout-contentSecondary-font": "Google_Poppins_400",
        "optimizedCheckout-buttonPrimary-font": "Google_Poppins_700",
        "optimizedCheckout-buttonPrimary-color": "#ffffff",
        "optimizedCheckout-buttonPrimary-colorHover": "#ffffff",
        "optimizedCheckout-buttonPrimary-colorActive": "#ffffff",
        "optimizedCheckout-buttonPrimary-backgroundColor": "#185d34",
        "optimizedCheckout-buttonPrimary-backgroundColorHover": "#01a74f",
        "optimizedCheckout-buttonPrimary-backgroundColorActive": "#01a74f",
        "optimizedCheckout-buttonPrimary-borderColor": "#d7d7d7",
        "optimizedCheckout-buttonPrimary-borderColorHover": "transparent",
        "optimizedCheckout-buttonPrimary-borderColorActive": "transparent",
        "optimizedCheckout-buttonPrimary-borderColorDisabled": "transparent",
        "optimizedCheckout-buttonPrimary-backgroundColorDisabled": "#cccccc",
        "optimizedCheckout-buttonPrimary-colorDisabled": "#ffffff",
        "optimizedCheckout-formChecklist-backgroundColor": "#ffffff",
        "optimizedCheckout-formChecklist-color": "#2f2f2b",
        "optimizedCheckout-formChecklist-borderColor": "#d7d7d7",
        "optimizedCheckout-formChecklist-backgroundColorSelected": "#f5f5f5",
        "optimizedCheckout-buttonSecondary-font": "Google_Poppins_400",
        "optimizedCheckout-buttonSecondary-color": "#ffffff",
        "optimizedCheckout-buttonSecondary-colorHover": "#ffffff",
        "optimizedCheckout-buttonSecondary-colorActive": "#ffffff",
        "optimizedCheckout-buttonSecondary-backgroundColor": "#185d34",
        "optimizedCheckout-buttonSecondary-borderColor": "#d7d7d7",
        "optimizedCheckout-buttonSecondary-backgroundColorHover": "#01a74f",
        "optimizedCheckout-buttonSecondary-backgroundColorActive": "#01a74f",
        "optimizedCheckout-buttonSecondary-borderColorHover": "#d7d7d7",
        "optimizedCheckout-buttonSecondary-borderColorActive": "#d7d7d7",
        "optimizedCheckout-link-color": "#185d34",
        "optimizedCheckout-link-font": "Google_Poppins_400",
        "optimizedCheckout-discountBanner-backgroundColor": "#e5e5e5",
        "optimizedCheckout-discountBanner-textColor": "#2f2f2b",
        "optimizedCheckout-discountBanner-iconColor": "#2f2f2b",
        "optimizedCheckout-orderSummary-backgroundColor": "#ffffff",
        "optimizedCheckout-orderSummary-borderColor": "#d7d7d7",
        "optimizedCheckout-step-backgroundColor": "#185d34",
        "optimizedCheckout-step-textColor": "#ffffff",
        "optimizedCheckout-form-textColor": "#2f2f2b",
        "optimizedCheckout-formField-borderColor": "#d7d7d7",
        "optimizedCheckout-formField-textColor": "#2f2f2b",
        "optimizedCheckout-formField-shadowColor": "#e5e5e5",
        "optimizedCheckout-formField-placeholderColor": "#2f2f2b",
        "optimizedCheckout-formField-backgroundColor": "#ffffff",
        "optimizedCheckout-formField-errorColor": "#e74c3c",
        "optimizedCheckout-formField-inputControlColor": "#185d34",
        "optimizedCheckout-step-borderColor": "#d7d7d7",
        "optimizedCheckout-header-borderColor": "#d7d7d7",
        "optimizedCheckout-header-textColor": "#2f2f2b",
        "optimizedCheckout-loadingToaster-backgroundColor": "#2f2f2b",
        "optimizedCheckout-loadingToaster-textColor": "#ffffff",
        "optimizedCheckout-link-hoverColor": "#01a74f",
        "color_badge_product_sale_badges": "#185d34",
        "color_text_product_sale_badges": "#ffffff",
        "color_hover_product_sale_badges": "#01a74f",
        "mobile_menu_icon_color": "#2f2f2b"
      }
    }
  ]
}
